<?xml version="1.0" encoding="UTF-8" standalone="no"?>
<!-- Created with Inkscape (http://www.inkscape.org/) -->

<svg
   width="8.8610001cm"
   height="3.9119999cm"
   viewBox="0 0 88.610001 39.119996"
   version="1.1"
   id="svg5"
   xml:space="preserve"
   xmlns="http://www.w3.org/2000/svg"
   xmlns:svg="http://www.w3.org/2000/svg"><defs
     id="defs2"><pattern
       id="EMFhbasepattern"
       patternUnits="userSpaceOnUse"
       width="6"
       height="6"
       x="0"
       y="0" /></defs><path
     id="path3040"
     style="color:#000000;display:inline;fill:#000000;fill-opacity:1;stroke:#ffffff;stroke-width:0.25;stroke-linecap:round;stroke-linejoin:round;stroke-miterlimit:5;stroke-dasharray:none;stroke-opacity:1"
     d="m 34.388238,6.8253309 a 1.3991962,0.86495521 38.175998 0 0 -0.977574,0.07031 C 32.1222,8.0167089 31.145437,9.1402289 30.054889,10.313609 29.939277,9.9968379 29.84364,9.6349939 29.728865,9.2843119 a 1.3991962,0.86495521 38.175998 0 0 -2.32921,-0.943356 c -0.69137,1.387721 -2.057472,4.8286861 -3.573921,8.5390621 a 1.3990563,0.86486872 38.175998 0 0 0.839987,1.552735 1.3990563,0.86486872 38.175998 0 0 1.512953,-0.08594 c 1.044476,-2.555575 1.715676,-4.131885 2.433276,-5.820312 a 1.3991962,0.86495521 38.175998 0 0 2.139136,1.054687 c 0.132644,-0.13503 0.167507,-0.16801 0.290372,-0.294922 -0.09916,0.320635 -0.315572,0.947502 -0.350711,1.095704 a 1.3990563,0.86486872 38.175998 0 0 0.991604,1.535156 1.3990563,0.86486872 38.175998 0 0 1.414699,-0.248047 c 0.03473,-0.146487 0.465413,-1.539705 0.969074,-3.011719 0.503661,-1.472013 1.108877,-3.1261911 1.540876,-4.0664061 a 1.3991962,0.86495521 38.175998 0 0 -1.21876,-1.765625 z m 8.180878,-0.830078 c -1.97295,0.104981 -3.345011,0.272903 -5.444724,0.910156 a 1.3991962,0.86495521 38.175998 0 0 -0.348573,0.267578 c -1.270971,2.252962 -1.540989,3.9789371 -2.383692,6.1074221 a 1.3991962,0.86495521 38.175998 0 0 1.970319,1.792969 c 2.01236,-0.589373 4.251634,-1.275391 6.096474,-1.751953 a 1.3991962,0.86495521 38.175998 0 0 0.436757,-0.423828 c 0.425885,-1.74687 0.531225,-2.505141 1.45118,-5.0957031 a 1.3991962,0.86495521 38.175998 0 0 -1.777741,-1.806641 z m -1.223893,2.599609 c -0.231528,0.826878 -0.565718,1.8504181 -0.764134,2.6816411 -0.88273,0.233357 -1.843871,0.524606 -2.80063,0.804687 0.325566,-0.98914 0.621526,-2.021733 1.199718,-3.0917961 0.900107,-0.263043 1.643568,-0.285402 2.365046,-0.394532 z M 51.933847,1.0030653 a 1.3990563,0.86486872 38.175998 0 0 -0.596794,0.3476562 c -0.707359,1.5775242 -1.75455,4.7992934 -2.739184,7.6035154 -0.09947,-0.84297 -0.148371,-1.663549 -0.380963,-2.574218 a 1.3991962,0.86495521 38.175998 0 0 -2.378878,-0.953125 c -0.507232,1.44609 -1.485745,3.752107 -2.068734,6.0722651 a 1.3990563,0.86486872 38.175998 0 0 0.978881,1.537109 1.3990563,0.86486872 38.175998 0 0 1.424239,-0.232421 c 0.105029,-0.417988 0.26052,-0.723048 0.389444,-1.140625 0.06476,0.831541 0.101488,1.595986 0.237663,2.55664 a 1.3991962,0.86495521 38.175998 0 0 2.407942,1.03711 C 50.615638,10.55291 52.546293,5.3673319 53.673861,2.8526747 A 1.3990563,0.86486872 38.175998 0 0 52.866131,1.2979871 1.3990563,0.86486872 38.175998 0 0 51.933847,1.0030653 Z m 7.05653,3.7441406 c -1.897406,0.0035 -3.692011,0.255039 -5.145242,0.457031 a 1.3991962,0.86495521 38.175998 0 0 -0.496011,0.333985 c -1.112676,2.421307 -1.439281,3.650639 -2.275261,6.0371091 a 1.3991962,0.86495521 38.175998 0 0 1.982376,1.769531 c 2.265208,-0.679285 4.186597,-1.011365 6.020008,-1.595703 a 1.3991962,0.86495521 38.175998 0 0 0.3987,-0.425781 c 0.356039,-1.6060821 0.854867,-2.9972341 1.258077,-4.8417971 a 1.3991962,0.86495521 38.175998 0 0 -1.742647,-1.734375 z m -1.175159,2.402344 c -0.231307,0.830105 -0.459063,1.68344 -0.66669,2.560547 -0.78916,0.238986 -1.831443,0.5069211 -2.741918,0.7285151 0.32453,-0.9301851 0.636622,-1.9177471 1.162552,-3.0878901 0.687121,-0.09446 1.482525,-0.127639 2.246056,-0.201172 z M 38.972415,18.428847 c -3.018258,1.009522 -5.04924,1.781635 -7.465749,2.644531 a 1.3990563,0.86486872 38.175998 0 0 -0.0079,0.0039 c -5.144045,1.837022 -9.448625,3.517992 -12.791131,5.035156 -0.457136,-0.03108 -1.061759,-0.03282 -1.529458,-0.05664 2.841463,-1.262764 5.760964,-2.583967 8.309309,-3.650391 a 1.3990563,0.86486872 38.175998 0 0 -0.0023,-1.400391 1.3990563,0.86486872 38.175998 0 0 -1.729515,-0.677734 c -3.868834,1.619018 -8.2621,3.38954 -12.730801,5.59375 a 1.3991962,0.86495521 38.175998 0 0 1.422635,2.121094 c 0.850667,0.01139 1.322979,0.0586 2.061433,0.07422 -4.398873,2.266121 -8.1850319,4.623948 -13.2553937,7.916015 a 1.3991962,0.86495521 38.175998 0 0 1.816504,2.03125 C 12.271788,34.456919 19.631232,32.163455 28.869882,29.297987 a 1.3991962,0.86495521 38.175998 0 0 -1.147855,-2.146484 c -1.560358,-0.23946 -2.540503,-0.307201 -3.786287,-0.464844 1.873017,-0.775698 4.039729,-1.63788 6.38951,-2.503906 l -0.732516,2.927734 a 1.3990563,0.86486872 38.175998 0 0 0.980834,1.53711 1.3990563,0.86486872 38.175998 0 0 1.424239,-0.232422 l 0.450719,-1.802735 5.382321,0.509766 a 1.3990563,0.86486872 38.175998 0 0 0.724139,-0.986328 1.3990563,0.86486872 38.175998 0 0 -1.570596,-1.203125 l -0.83967,-0.08008 c 0.521223,-0.466552 0.846814,-0.702434 1.442914,-1.259766 1.371573,-1.282373 2.725784,-2.60144 3.278634,-3.214844 a 1.3991962,0.86495521 38.175998 0 0 -1.893854,-1.949218 z m -4.640454,4.335937 c -0.468368,0.418903 -0.861162,0.7701 -1.178944,1.035156 l 0.170876,-0.677734 c 0.327739,-0.116703 0.67013,-0.23833 1.008068,-0.357422 z m -14.216567,5.554688 c 0.756648,0.05598 1.817208,0.215277 2.606056,0.298828 -2.914351,0.912594 -5.877428,1.832071 -8.663751,2.763672 1.842571,-1.022713 3.908891,-2.078038 6.057695,-3.0625 z M 43.623938,13.866347 c -4.129735,0.954688 -10.128182,2.769941 -16.009655,5.019531 a 1.3990563,0.86486872 38.175998 0 0 -0.03651,1.384765 1.3990563,0.86486872 38.175998 0 0 1.729067,0.708985 C 35.126084,18.75384 41.09195,16.95122 45.117383,16.020643 a 1.3990563,0.86486872 38.175998 0 0 0.221824,-1.300781 1.3990563,0.86486872 38.175998 0 0 -1.715269,-0.853515 z m 3.813958,2.412109 a 1.3991962,0.86495521 38.175998 0 0 -1.216539,0.253906 c -0.808182,2.12721 -1.601774,4.188645 -2.375612,6.22461 -0.292528,0.09117 -0.593433,0.190263 -0.890874,0.289062 0.575196,-1.33866 1.201164,-2.743969 1.70487,-3.925781 a 1.3990563,0.86486872 38.175998 0 0 -0.826317,-1.552735 1.3990563,0.86486872 38.175998 0 0 -1.520543,0.07031 c -0.878357,2.060827 -1.824288,4.420367 -2.927109,6.75 a 1.3991962,0.86495521 38.175998 0 0 2.029806,1.798828 c 0.463877,-0.194211 0.833782,-0.24533 1.280394,-0.416016 -0.329402,0.856871 -0.623902,1.656654 -0.973219,2.552735 a 1.3990563,0.86486872 38.175998 0 0 0.856614,1.550781 1.3990563,0.86486872 38.175998 0 0 1.503413,-0.101562 c 0.696218,-1.785966 1.303289,-3.414366 1.937283,-5.080079 3.465335,-1.036425 6.792884,-1.794665 10.704717,-2.828125 a 1.3991962,0.86495521 38.175998 0 0 -0.744962,-2.048828 c -3.194425,-1.310365 -5.911846,-2.441561 -8.541922,-3.537106 z m 0.896889,2.349609 c 1.299843,0.541218 2.776956,1.150469 4.187959,1.734375 -1.797981,0.425917 -3.626664,0.875761 -5.350898,1.3125 0.377891,-0.998257 0.772556,-2.017887 1.162939,-3.046875 z m 11.017566,-6.113281 c -3.837819,0.967742 -5.312449,1.412546 -9.04136,2.605469 a 1.3991962,0.86495521 38.175998 0 0 0.711372,2.007812 c 2.641791,1.207318 5.431277,2.322753 8.603249,3.619141 a 1.3990563,0.86486872 38.175998 0 0 1.247141,-0.480469 1.3990563,0.86486872 38.175998 0 0 -1.198472,-1.478515 c -2.010379,-0.821644 -3.620939,-1.519069 -5.335905,-2.244141 2.058834,-0.637756 3.748065,-1.179107 6.538783,-1.882813 a 1.3990563,0.86486872 38.175998 0 0 0.1937,-1.314453 1.3990563,0.86486872 38.175998 0 0 -1.718508,-0.832031 z m -0.574668,3.15625 a 1.3990563,0.86486872 38.175998 0 0 -0.796567,0.929688 1.3990563,0.86486872 38.175998 0 0 1.53577,1.248046 l 0.03803,0.0059 A 1.3990563,0.86486872 38.175998 0 0 60.351484,16.92498 1.3990563,0.86486872 38.175998 0 0 58.815713,15.676933 Z M 73.356482,9.3741589 c -4.25521,0.8671491 -7.105413,1.4219771 -10.237377,2.3828131 a 1.3991962,0.86495521 38.175998 0 0 -0.399311,0.40039 c -0.66781,2.466728 -0.877769,4.577906 -1.254129,6.876953 a 1.3990563,0.86486872 38.175998 0 0 1.063089,1.521485 1.3990563,0.86486872 38.175998 0 0 1.364036,-0.324219 c 0.133859,-0.817691 0.309521,-1.580035 0.425377,-2.349609 8.54123,-0.76677 12.9668,-1.062581 22.655885,-1.53711 a 1.3990563,0.86486872 38.175998 0 0 0.488217,-1.15039 1.3990563,0.86486872 38.175998 0 0 -1.660733,-1.046875 c -7.193602,0.352311 -11.624254,0.724243 -16.862156,1.144531 0.797234,-0.464545 1.443549,-0.854026 2.210161,-1.304688 1.038565,-0.610533 1.989728,-1.178258 2.702211,-1.634765 0.356241,-0.228254 0.653249,-0.427011 0.879685,-0.597657 0.113219,-0.08532 0.207095,-0.163466 0.291595,-0.24414 0.0845,-0.08067 0.167549,-0.106965 0.250367,-0.365235 A 1.3991962,0.86495521 38.175998 0 0 73.356482,9.3741589 Z m -6.439308,3.9980471 c -0.713717,0.415938 -1.354564,0.796098 -1.993465,1.175781 0.0569,-0.250601 0.06878,-0.487442 0.134721,-0.74414 0.557714,-0.167289 1.303797,-0.284651 1.858744,-0.431641 z" /></svg>
